%YAML 1.1
%TAG !u! tag:unity3d.com,2011:
--- !u!1 &4564378243854401838
GameObject:
  m_ObjectHideFlags: 0
  m_CorrespondingSourceObject: {fileID: 0}
  m_PrefabInstance: {fileID: 0}
  m_PrefabAsset: {fileID: 0}
  serializedVersion: 6
  m_Component:
  - component: {fileID: 4564378243854401826}
  - component: {fileID: 4564378243854401825}
  - component: {fileID: 4564378243854401824}
  - component: {fileID: 4564378243854401839}
  - component: {fileID: 2078680360}
  - component: {fileID: 2078680359}
  - component: {fileID: 2078680358}
  m_Layer: 11
  m_Name: CoffeeMaker
  m_TagString: Collectable
  m_Icon: {fileID: 0}
  m_NavMeshLayer: 0
  m_StaticEditorFlags: 0
  m_IsActive: 1
--- !u!4 &4564378243854401826
Transform:
  m_ObjectHideFlags: 0
  m_CorrespondingSourceObject: {fileID: 0}
  m_PrefabInstance: {fileID: 0}
  m_PrefabAsset: {fileID: 0}
  m_GameObject: {fileID: 4564378243854401838}
  m_LocalRotation: {x: 0, y: -0.31456405, z: 0, w: 0.94923633}
  m_LocalPosition: {x: 14.28, y: 0.21200001, z: -7.44}
  m_LocalScale: {x: 1, y: 1, z: 1}
  m_Children:
  - {fileID: 4564378242940347633}
  m_Father: {fileID: 0}
  m_RootOrder: 0
  m_LocalEulerAnglesHint: {x: 0, y: -36.669003, z: 0}
--- !u!114 &4564378243854401825
MonoBehaviour:
  m_ObjectHideFlags: 0
  m_CorrespondingSourceObject: {fileID: 0}
  m_PrefabInstance: {fileID: 0}
  m_PrefabAsset: {fileID: 0}
  m_GameObject: {fileID: 4564378243854401838}
  m_Enabled: 1
  m_EditorHideFlags: 0
  m_Script: {fileID: 11500000, guid: 2a5a7887576ebdb4585b9975b9a54dd7, type: 3}
  m_Name: 
  m_EditorClassIdentifier: 
  hitPts: 5
  myItemRef: 0
  traits: 000000000400000008000000
  negativeTraits: 03000000
  roomAffinity: 4
  rby: {fileID: 4564378243854401839}
  collido: {fileID: 4564378243854401824}
  localPos: {x: 3.94, y: -0.4, z: -1.6}
  localErot: {x: 5.6, y: 20, z: 140}
  currentPlace: 0
  heldPlayer: 0
  inHouse: 0
--- !u!65 &4564378243854401824
BoxCollider:
  m_ObjectHideFlags: 0
  m_CorrespondingSourceObject: {fileID: 0}
  m_PrefabInstance: {fileID: 0}
  m_PrefabAsset: {fileID: 0}
  m_GameObject: {fileID: 4564378243854401838}
  m_Material: {fileID: 0}
  m_IsTrigger: 0
  m_Enabled: 1
  serializedVersion: 2
  m_Size: {x: 0.9189644, y: 1.1629252, z: 1.0060625}
  m_Center: {x: 0.01586914, y: 0.46347713, z: -0.053554058}
--- !u!54 &4564378243854401839
Rigidbody:
  m_ObjectHideFlags: 0
  m_CorrespondingSourceObject: {fileID: 0}
  m_PrefabInstance: {fileID: 0}
  m_PrefabAsset: {fileID: 0}
  m_GameObject: {fileID: 4564378243854401838}
  serializedVersion: 2
  m_Mass: 1
  m_Drag: 0
  m_AngularDrag: 0.05
  m_UseGravity: 1
  m_IsKinematic: 1
  m_Interpolate: 0
  m_Constraints: 0
  m_CollisionDetection: 0
--- !u!114 &2078680360
MonoBehaviour:
  m_ObjectHideFlags: 0
  m_CorrespondingSourceObject: {fileID: 0}
  m_PrefabInstance: {fileID: 0}
  m_PrefabAsset: {fileID: 0}
  m_GameObject: {fileID: 4564378243854401838}
  m_Enabled: 1
  m_EditorHideFlags: 0
  m_Script: {fileID: 11500000, guid: aa584fbee541324448dd18d8409c7a41, type: 3}
  m_Name: 
  m_EditorClassIdentifier: 
  ObservedComponentsFoldoutOpen: 1
  Group: 0
  prefixField: -1
  Synchronization: 3
  OwnershipTransfer: 1
  ObservedComponents:
  - {fileID: 2078680359}
  - {fileID: 2078680358}
  viewIdField: 32
  InstantiationId: 32
  isRuntimeInstantiated: 0
--- !u!114 &2078680359
MonoBehaviour:
  m_ObjectHideFlags: 0
  m_CorrespondingSourceObject: {fileID: 0}
  m_PrefabInstance: {fileID: 0}
  m_PrefabAsset: {fileID: 0}
  m_GameObject: {fileID: 4564378243854401838}
  m_Enabled: 1
  m_EditorHideFlags: 0
  m_Script: {fileID: 11500000, guid: 64179f3720bbfe947b7724caa67b7c1d, type: 3}
  m_Name: 
  m_EditorClassIdentifier: 
  m_SynchronizeVelocity: 0
  m_SynchronizeAngularVelocity: 1
  m_TeleportEnabled: 0
  m_TeleportIfDistanceGreaterThan: 3
--- !u!114 &2078680358
MonoBehaviour:
  m_ObjectHideFlags: 0
  m_CorrespondingSourceObject: {fileID: 0}
  m_PrefabInstance: {fileID: 0}
  m_PrefabAsset: {fileID: 0}
  m_GameObject: {fileID: 4564378243854401838}
  m_Enabled: 1
  m_EditorHideFlags: 0
  m_Script: {fileID: 11500000, guid: 627855c7f81362d41938ffe0b1475957, type: 3}
  m_Name: 
  m_EditorClassIdentifier: 
  m_SynchronizePosition: 1
  m_SynchronizeRotation: 1
  m_SynchronizeScale: 0
--- !u!1001 &4564378242940485235
PrefabInstance:
  m_ObjectHideFlags: 0
  serializedVersion: 2
  m_Modification:
    m_TransformParent: {fileID: 4564378243854401826}
    m_Modifications:
    - target: {fileID: 100002, guid: 7b0c7c1799cb60849aa68f69961bcd8a, type: 3}
      propertyPath: m_Name
      value: CoffeeMaker
      objectReference: {fileID: 0}
    - target: {fileID: 400002, guid: 7b0c7c1799cb60849aa68f69961bcd8a, type: 3}
      propertyPath: m_LocalPosition.x
      value: -0.031000137
      objectReference: {fileID: 0}
    - target: {fileID: 400002, guid: 7b0c7c1799cb60849aa68f69961bcd8a, type: 3}
      propertyPath: m_LocalPosition.y
      value: -0.072
      objectReference: {fileID: 0}
    - target: {fileID: 400002, guid: 7b0c7c1799cb60849aa68f69961bcd8a, type: 3}
      propertyPath: m_LocalPosition.z
      value: 0.034000397
      objectReference: {fileID: 0}
    - target: {fileID: 400002, guid: 7b0c7c1799cb60849aa68f69961bcd8a, type: 3}
      propertyPath: m_LocalRotation.x
      value: -0
      objectReference: {fileID: 0}
    - target: {fileID: 400002, guid: 7b0c7c1799cb60849aa68f69961bcd8a, type: 3}
      propertyPath: m_LocalRotation.y
      value: -0
      objectReference: {fileID: 0}
    - target: {fileID: 400002, guid: 7b0c7c1799cb60849aa68f69961bcd8a, type: 3}
      propertyPath: m_LocalRotation.z
      value: -0
      objectReference: {fileID: 0}
    - target: {fileID: 400002, guid: 7b0c7c1799cb60849aa68f69961bcd8a, type: 3}
      propertyPath: m_LocalRotation.w
      value: 1
      objectReference: {fileID: 0}
    - target: {fileID: 400002, guid: 7b0c7c1799cb60849aa68f69961bcd8a, type: 3}
      propertyPath: m_RootOrder
      value: 0
      objectReference: {fileID: 0}
    - target: {fileID: 400002, guid: 7b0c7c1799cb60849aa68f69961bcd8a, type: 3}
      propertyPath: m_LocalEulerAnglesHint.x
      value: 0
      objectReference: {fileID: 0}
    - target: {fileID: 400002, guid: 7b0c7c1799cb60849aa68f69961bcd8a, type: 3}
      propertyPath: m_LocalEulerAnglesHint.y
      value: 0
      objectReference: {fileID: 0}
    - target: {fileID: 400002, guid: 7b0c7c1799cb60849aa68f69961bcd8a, type: 3}
      propertyPath: m_LocalEulerAnglesHint.z
      value: 0
      objectReference: {fileID: 0}
    - target: {fileID: 400002, guid: 7b0c7c1799cb60849aa68f69961bcd8a, type: 3}
      propertyPath: m_LocalScale.x
      value: 40.21291
      objectReference: {fileID: 0}
    - target: {fileID: 400002, guid: 7b0c7c1799cb60849aa68f69961bcd8a, type: 3}
      propertyPath: m_LocalScale.y
      value: 40.21291
      objectReference: {fileID: 0}
    - target: {fileID: 400002, guid: 7b0c7c1799cb60849aa68f69961bcd8a, type: 3}
      propertyPath: m_LocalScale.z
      value: 40.21291
      objectReference: {fileID: 0}
    m_RemovedComponents: []
  m_SourcePrefab: {fileID: 100100000, guid: 7b0c7c1799cb60849aa68f69961bcd8a, type: 3}
--- !u!4 &4564378242940347633 stripped
Transform:
  m_CorrespondingSourceObject: {fileID: 400002, guid: 7b0c7c1799cb60849aa68f69961bcd8a,
    type: 3}
  m_PrefabInstance: {fileID: 4564378242940485235}
  m_PrefabAsset: {fileID: 0}
